^F:\PROJECTFILES\PAPER\CODE\SIMPLE_ISP_PIPELINE\C++\MASTER BRANCH\YSHARPEN_PROCESS\SHARPEN_AND_FCR_PROCESS\X64\DEBUG\SHARPEN.OBJ|F:\PROJECTFILES\PAPER\CODE\SIMPLE_ISP_PIPELINE\C++\MASTER BRANCH\YSHARPEN_PROCESS\SHARPEN_AND_FCR_PROCESS\X64\DEBUG\SHARPEN_SINGLETEST.OBJ
C:\PROGRAM FILES (X86)\WINDOWS KITS\10\LIB\10.0.19041.0\UM\X64\KERNEL32.LIB
C:\PROGRAM FILES (X86)\WINDOWS KITS\10\LIB\10.0.19041.0\UM\X64\USER32.LIB
C:\PROGRAM FILES (X86)\WINDOWS KITS\10\LIB\10.0.19041.0\UM\X64\GDI32.LIB
C:\PROGRAM FILES (X86)\WINDOWS KITS\10\LIB\10.0.19041.0\UM\X64\WINSPOOL.LIB
C:\PROGRAM FILES (X86)\WINDOWS KITS\10\LIB\10.0.19041.0\UM\X64\COMDLG32.LIB
C:\PROGRAM FILES (X86)\WINDOWS KITS\10\LIB\10.0.19041.0\UM\X64\ADVAPI32.LIB
C:\PROGRAM FILES (X86)\WINDOWS KITS\10\LIB\10.0.19041.0\UM\X64\SHELL32.LIB
C:\PROGRAM FILES (X86)\WINDOWS KITS\10\LIB\10.0.19041.0\UM\X64\OLE32.LIB
C:\PROGRAM FILES (X86)\WINDOWS KITS\10\LIB\10.0.19041.0\UM\X64\OLEAUT32.LIB
C:\PROGRAM FILES (X86)\WINDOWS KITS\10\LIB\10.0.19041.0\UM\X64\UUID.LIB
C:\PROGRAM FILES (X86)\WINDOWS KITS\10\LIB\10.0.19041.0\UM\X64\ODBC32.LIB
C:\PROGRAM FILES (X86)\WINDOWS KITS\10\LIB\10.0.19041.0\UM\X64\ODBCCP32.LIB
F:\PROJECTFILES\PAPER\CODE\SIMPLE_ISP_PIPELINE\C++\MASTER BRANCH\YSHARPEN_PROCESS\SHARPEN_AND_FCR_PROCESS\X64\DEBUG\SHARPEN.OBJ
F:\PROJECTFILES\PAPER\CODE\SIMPLE_ISP_PIPELINE\C++\MASTER BRANCH\YSHARPEN_PROCESS\SHARPEN_AND_FCR_PROCESS\X64\DEBUG\SHARPEN_SINGLETEST.OBJ
C:\WINDOWS\SYSTEM32\TZRES.DLL
C:\WINDOWS\GLOBALIZATION\SORTING\SORTDEFAULT.NLS
D:\VISUAL STUDIO 2021\VS2021\IDE\VC\TOOLS\MSVC\14.30.30705\LIB\X64\MSVCRTD.LIB
D:\VISUAL STUDIO 2021\VS2021\IDE\VC\TOOLS\MSVC\14.30.30705\LIB\X64\OLDNAMES.LIB
D:\VISUAL STUDIO 2021\VS2021\IDE\VC\TOOLS\MSVC\14.30.30705\LIB\X64\VCRUNTIMED.LIB
C:\PROGRAM FILES (X86)\WINDOWS KITS\10\LIB\10.0.19041.0\UCRT\X64\UCRTD.LIB
F:\PROJECTFILES\PAPER\CODE\SIMPLE_ISP_PIPELINE\C++\MASTER BRANCH\YSHARPEN_PROCESS\SHARPEN_AND_FCR_PROCESS\X64\DEBUG\VC143.PDB
