^F:\PROJECT FILES\PAPER\CODE\SIMPLE_ISP_PIPELINE\C++\MASTER BRANCH\RGB2YUV_PROCESS\RGB2YUV_PROCESS\RGB2YUV.CPP|F:\PROJECT FILES\PAPER\CODE\SIMPLE_ISP_PIPELINE\C++\MASTER BRANCH\RGB2YUV_PROCESS\RGB2YUV_PROCESS\RGB2YUV_SINGLETEST.CPP
F:\PROJECT FILES\PAPER\CODE\SIMPLE_ISP_PIPELINE\C++\MASTER BRANCH\RGB2YUV_PROCESS\RGB2YUV_PROCESS\X64\DEBUG\VC143.PDB
F:\PROJECT FILES\PAPER\CODE\SIMPLE_ISP_PIPELINE\C++\MASTER BRANCH\RGB2YUV_PROCESS\RGB2YUV_PROCESS\X64\DEBUG\VC143.IDB
F:\PROJECT FILES\PAPER\CODE\SIMPLE_ISP_PIPELINE\C++\MASTER BRANCH\RGB2YUV_PROCESS\RGB2YUV_PROCESS\X64\DEBUG\RGB2YUV_SINGLETEST.OBJ
F:\PROJECT FILES\PAPER\CODE\SIMPLE_ISP_PIPELINE\C++\MASTER BRANCH\RGB2YUV_PROCESS\RGB2YUV_PROCESS\X64\DEBUG\RGB2YUV.OBJ
^F:\PROJECT FILES\PAPER\CODE\SIMPLE_ISP_PIPELINE\C++\MASTER BRANCH\RGB2YUV_PROCESS\RGB2YUV_PROCESS\RGB2YUV_SINGLETEST.CPP
F:\PROJECT FILES\PAPER\CODE\SIMPLE_ISP_PIPELINE\C++\MASTER BRANCH\RGB2YUV_PROCESS\RGB2YUV_PROCESS\X64\DEBUG\VC143.PDB
^F:\PROJECT FILES\PAPER\CODE\SIMPLE_ISP_PIPELINE\C++\MASTER BRANCH\RGB2YUV_PROCESS\RGB2YUV_PROCESS\RGB2YUV.CPP
F:\PROJECT FILES\PAPER\CODE\SIMPLE_ISP_PIPELINE\C++\MASTER BRANCH\RGB2YUV_PROCESS\RGB2YUV_PROCESS\X64\DEBUG\VC143.PDB
F:\PROJECT FILES\PAPER\CODE\SIMPLE_ISP_PIPELINE\C++\MASTER BRANCH\RGB2YUV_PROCESS\RGB2YUV_PROCESS\X64\DEBUG\VC143.IDB
F:\PROJECT FILES\PAPER\CODE\SIMPLE_ISP_PIPELINE\C++\MASTER BRANCH\RGB2YUV_PROCESS\RGB2YUV_PROCESS\X64\DEBUG\RGB2YUV.OBJ
