^F:\PROJECT FILES\PAPER\CODE\SIMPLE_ISP_PIPELINE\C++\MASTER BRANCH\DEFECTED_PIXEL_CORRECTION\DEFECTED_PIXEL_CORRECTION\DPC.CPP
F:\PROJECT FILES\PAPER\CODE\SIMPLE_ISP_PIPELINE\C++\MASTER BRANCH\DEFECTED_PIXEL_CORRECTION\DEFECTED_PIXEL_CORRECTION\DPC.H
F:\PROJECT FILES\PAPER\CODE\SIMPLE_ISP_PIPELINE\C++\MASTER BRANCH\DEFECTED_PIXEL_CORRECTION\DEFECTED_PIXEL_CORRECTION\COMMON.H
C:\PROGRAM FILES (X86)\WINDOWS KITS\10\INCLUDE\10.0.19041.0\UCRT\STDIO.H
C:\PROGRAM FILES (X86)\WINDOWS KITS\10\INCLUDE\10.0.19041.0\UCRT\CORECRT.H
D:\VISUAL STUDIO 2021\VS2021\IDE\VC\TOOLS\MSVC\14.30.30705\INCLUDE\VCRUNTIME.H
D:\VISUAL STUDIO 2021\VS2021\IDE\VC\TOOLS\MSVC\14.30.30705\INCLUDE\SAL.H
D:\VISUAL STUDIO 2021\VS2021\IDE\VC\TOOLS\MSVC\14.30.30705\INCLUDE\CONCURRENCYSAL.H
D:\VISUAL STUDIO 2021\VS2021\IDE\VC\TOOLS\MSVC\14.30.30705\INCLUDE\VADEFS.H
C:\PROGRAM FILES (X86)\WINDOWS KITS\10\INCLUDE\10.0.19041.0\UCRT\CORECRT_WSTDIO.H
C:\PROGRAM FILES (X86)\WINDOWS KITS\10\INCLUDE\10.0.19041.0\UCRT\CORECRT_STDIO_CONFIG.H
C:\PROGRAM FILES (X86)\WINDOWS KITS\10\INCLUDE\10.0.19041.0\UCRT\STDLIB.H
C:\PROGRAM FILES (X86)\WINDOWS KITS\10\INCLUDE\10.0.19041.0\UCRT\CORECRT_MALLOC.H
C:\PROGRAM FILES (X86)\WINDOWS KITS\10\INCLUDE\10.0.19041.0\UCRT\CORECRT_SEARCH.H
C:\PROGRAM FILES (X86)\WINDOWS KITS\10\INCLUDE\10.0.19041.0\UCRT\STDDEF.H
C:\PROGRAM FILES (X86)\WINDOWS KITS\10\INCLUDE\10.0.19041.0\UCRT\CORECRT_WSTDLIB.H
D:\VISUAL STUDIO 2021\VS2021\IDE\VC\TOOLS\MSVC\14.30.30705\INCLUDE\LIMITS.H
C:\PROGRAM FILES (X86)\WINDOWS KITS\10\INCLUDE\10.0.19041.0\UCRT\MEMORY.H
C:\PROGRAM FILES (X86)\WINDOWS KITS\10\INCLUDE\10.0.19041.0\UCRT\CORECRT_MEMORY.H
C:\PROGRAM FILES (X86)\WINDOWS KITS\10\INCLUDE\10.0.19041.0\UCRT\CORECRT_MEMCPY_S.H
C:\PROGRAM FILES (X86)\WINDOWS KITS\10\INCLUDE\10.0.19041.0\UCRT\ERRNO.H
D:\VISUAL STUDIO 2021\VS2021\IDE\VC\TOOLS\MSVC\14.30.30705\INCLUDE\VCRUNTIME_STRING.H
D:\VISUAL STUDIO 2021\VS2021\IDE\VC\TOOLS\MSVC\14.30.30705\INCLUDE\STDINT.H
C:\PROGRAM FILES (X86)\WINDOWS KITS\10\INCLUDE\10.0.19041.0\UCRT\MATH.H
C:\PROGRAM FILES (X86)\WINDOWS KITS\10\INCLUDE\10.0.19041.0\UCRT\CORECRT_MATH.H
^F:\PROJECT FILES\PAPER\CODE\SIMPLE_ISP_PIPELINE\C++\MASTER BRANCH\DEFECTED_PIXEL_CORRECTION\DEFECTED_PIXEL_CORRECTION\DPC_SINGLETEST.CPP
F:\PROJECT FILES\PAPER\CODE\SIMPLE_ISP_PIPELINE\C++\MASTER BRANCH\DEFECTED_PIXEL_CORRECTION\DEFECTED_PIXEL_CORRECTION\COMMON.H
C:\PROGRAM FILES (X86)\WINDOWS KITS\10\INCLUDE\10.0.19041.0\UCRT\STDIO.H
C:\PROGRAM FILES (X86)\WINDOWS KITS\10\INCLUDE\10.0.19041.0\UCRT\CORECRT.H
D:\VISUAL STUDIO 2021\VS2021\IDE\VC\TOOLS\MSVC\14.30.30705\INCLUDE\VCRUNTIME.H
D:\VISUAL STUDIO 2021\VS2021\IDE\VC\TOOLS\MSVC\14.30.30705\INCLUDE\SAL.H
D:\VISUAL STUDIO 2021\VS2021\IDE\VC\TOOLS\MSVC\14.30.30705\INCLUDE\CONCURRENCYSAL.H
D:\VISUAL STUDIO 2021\VS2021\IDE\VC\TOOLS\MSVC\14.30.30705\INCLUDE\VADEFS.H
C:\PROGRAM FILES (X86)\WINDOWS KITS\10\INCLUDE\10.0.19041.0\UCRT\CORECRT_WSTDIO.H
C:\PROGRAM FILES (X86)\WINDOWS KITS\10\INCLUDE\10.0.19041.0\UCRT\CORECRT_STDIO_CONFIG.H
C:\PROGRAM FILES (X86)\WINDOWS KITS\10\INCLUDE\10.0.19041.0\UCRT\STDLIB.H
C:\PROGRAM FILES (X86)\WINDOWS KITS\10\INCLUDE\10.0.19041.0\UCRT\CORECRT_MALLOC.H
C:\PROGRAM FILES (X86)\WINDOWS KITS\10\INCLUDE\10.0.19041.0\UCRT\CORECRT_SEARCH.H
C:\PROGRAM FILES (X86)\WINDOWS KITS\10\INCLUDE\10.0.19041.0\UCRT\STDDEF.H
C:\PROGRAM FILES (X86)\WINDOWS KITS\10\INCLUDE\10.0.19041.0\UCRT\CORECRT_WSTDLIB.H
D:\VISUAL STUDIO 2021\VS2021\IDE\VC\TOOLS\MSVC\14.30.30705\INCLUDE\LIMITS.H
C:\PROGRAM FILES (X86)\WINDOWS KITS\10\INCLUDE\10.0.19041.0\UCRT\MEMORY.H
C:\PROGRAM FILES (X86)\WINDOWS KITS\10\INCLUDE\10.0.19041.0\UCRT\CORECRT_MEMORY.H
C:\PROGRAM FILES (X86)\WINDOWS KITS\10\INCLUDE\10.0.19041.0\UCRT\CORECRT_MEMCPY_S.H
C:\PROGRAM FILES (X86)\WINDOWS KITS\10\INCLUDE\10.0.19041.0\UCRT\ERRNO.H
D:\VISUAL STUDIO 2021\VS2021\IDE\VC\TOOLS\MSVC\14.30.30705\INCLUDE\VCRUNTIME_STRING.H
D:\VISUAL STUDIO 2021\VS2021\IDE\VC\TOOLS\MSVC\14.30.30705\INCLUDE\STDINT.H
C:\PROGRAM FILES (X86)\WINDOWS KITS\10\INCLUDE\10.0.19041.0\UCRT\MATH.H
C:\PROGRAM FILES (X86)\WINDOWS KITS\10\INCLUDE\10.0.19041.0\UCRT\CORECRT_MATH.H
F:\PROJECT FILES\PAPER\CODE\SIMPLE_ISP_PIPELINE\C++\MASTER BRANCH\DEFECTED_PIXEL_CORRECTION\DEFECTED_PIXEL_CORRECTION\DPC.H
