^F:\PROJECT FILES\PAPER\CODE\SIMPLE_ISP_PIPELINE\C++\MASTER BRANCH\RGBDNS_PROCESS\RGBDNS_PROCESS\X64\DEBUG\RGBDNS.OBJ|F:\PROJECT FILES\PAPER\CODE\SIMPLE_ISP_PIPELINE\C++\MASTER BRANCH\RGBDNS_PROCESS\RGBDNS_PROCESS\X64\DEBUG\RGBDNS_SINGLETEST.OBJ
/OUT:"F:\PROJECT FILES\PAPER\CODE\SIMPLE_ISP_PIPELINE\C++\MASTER BRANCH\RGBDNS_PROCESS\RGBDNS_PROCESS\X64\DEBUG\RGBDNS_PROCESS.EXE" /INCREMENTAL /ILK:"X64\DEBUG\RGBDNS_PROCESS.ILK" /NOLOGO KERNEL32.LIB USER32.LIB GDI32.LIB WINSPOOL.LIB COMDLG32.LIB ADVAPI32.LIB SHELL32.LIB OLE32.LIB OLEAUT32.LIB UUID.LIB ODBC32.LIB ODBCCP32.LIB /MANIFEST /MANIFESTUAC:"level='asInvoker' uiAccess='false'" /manifest:embed /DEBUG /PDB:"F:\PROJECT FILES\PAPER\CODE\SIMPLE_ISP_PIPELINE\C++\MASTER BRANCH\RGBDNS_PROCESS\RGBDNS_PROCESS\X64\DEBUG\RGBDNS_PROCESS.PDB" /SUBSYSTEM:CONSOLE /TLBID:1 /DYNAMICBASE /NXCOMPAT /IMPLIB:"F:\PROJECT FILES\PAPER\CODE\SIMPLE_ISP_PIPELINE\C++\MASTER BRANCH\RGBDNS_PROCESS\RGBDNS_PROCESS\X64\DEBUG\RGBDNS_PROCESS.LIB" /MACHINE:X64 X64\DEBUG\RGBDNS.OBJ
X64\DEBUG\RGBDNS_SINGLETEST.OBJ
^F:\PROJECTFILES\PAPER\CODE\SIMPLE_ISP_PIPELINE\C++\MASTER BRANCH\RGBDNS_PROCESS\RGBDNS_PROCESS\X64\DEBUG\RGBDNS.OBJ|F:\PROJECTFILES\PAPER\CODE\SIMPLE_ISP_PIPELINE\C++\MASTER BRANCH\RGBDNS_PROCESS\RGBDNS_PROCESS\X64\DEBUG\RGBDNS_SINGLETEST.OBJ
/OUT:"F:\PROJECTFILES\PAPER\CODE\SIMPLE_ISP_PIPELINE\C++\MASTER BRANCH\RGBDNS_PROCESS\RGBDNS_PROCESS\X64\DEBUG\RGBDNS_PROCESS.EXE" /INCREMENTAL /ILK:"X64\DEBUG\RGBDNS_PROCESS.ILK" /NOLOGO KERNEL32.LIB USER32.LIB GDI32.LIB WINSPOOL.LIB COMDLG32.LIB ADVAPI32.LIB SHELL32.LIB OLE32.LIB OLEAUT32.LIB UUID.LIB ODBC32.LIB ODBCCP32.LIB /MANIFEST /MANIFESTUAC:"level='asInvoker' uiAccess='false'" /manifest:embed /DEBUG /PDB:"F:\PROJECTFILES\PAPER\CODE\SIMPLE_ISP_PIPELINE\C++\MASTER BRANCH\RGBDNS_PROCESS\RGBDNS_PROCESS\X64\DEBUG\RGBDNS_PROCESS.PDB" /SUBSYSTEM:CONSOLE /TLBID:1 /DYNAMICBASE /NXCOMPAT /IMPLIB:"F:\PROJECTFILES\PAPER\CODE\SIMPLE_ISP_PIPELINE\C++\MASTER BRANCH\RGBDNS_PROCESS\RGBDNS_PROCESS\X64\DEBUG\RGBDNS_PROCESS.LIB" /MACHINE:X64 X64\DEBUG\RGBDNS.OBJ
X64\DEBUG\RGBDNS_SINGLETEST.OBJ
