^F:\PROJECT FILES\PAPER\CODE\SIMPLE_ISP_PIPELINE\C++\MASTER BRANCH\COLOR_CORRECTION_PROCESS\CORRECTION_PROCESS\CCP_SINGLETEST.CPP
/c /ZI /JMC /nologo /W3 /WX- /diagnostics:column /sdl /Od /D _DEBUG /D _CONSOLE /D _UNICODE /D UNICODE /Gm- /EHsc /RTC1 /MDd /GS /fp:precise /Zc:wchar_t /Zc:forScope /Zc:inline /permissive- /Fo"X64\DEBUG\\" /Fd"X64\DEBUG\VC143.PDB" /external:W3 /Gd /TP /FC F:\PROJECT FILES\PAPER\CODE\SIMPLE_ISP_PIPELINE\C++\MASTER BRANCH\COLOR_CORRECTION_PROCESS\CORRECTION_PROCESS\CCP_SINGLETEST.CPP
^F:\PROJECT FILES\PAPER\CODE\SIMPLE_ISP_PIPELINE\C++\MASTER BRANCH\COLOR_CORRECTION_PROCESS\CORRECTION_PROCESS\CCP.CPP
/c /ZI /JMC /nologo /W3 /WX- /diagnostics:column /sdl /Od /D _DEBUG /D _CONSOLE /D _UNICODE /D UNICODE /Gm- /EHsc /RTC1 /MDd /GS /fp:precise /Zc:wchar_t /Zc:forScope /Zc:inline /permissive- /Fo"X64\DEBUG\\" /Fd"X64\DEBUG\VC143.PDB" /external:W3 /Gd /TP /FC F:\PROJECT FILES\PAPER\CODE\SIMPLE_ISP_PIPELINE\C++\MASTER BRANCH\COLOR_CORRECTION_PROCESS\CORRECTION_PROCESS\CCP.CPP
^F:\PROJECTFILES\PAPER\CODE\SIMPLE_ISP_PIPELINE\C++\MASTER BRANCH\COLOR_CORRECTION_PROCESS\CORRECTION_PROCESS\CCP.CPP
/c /ZI /JMC /nologo /W3 /WX- /diagnostics:column /sdl /Od /D _DEBUG /D _CONSOLE /D _UNICODE /D UNICODE /Gm- /EHsc /RTC1 /MDd /GS /fp:precise /Zc:wchar_t /Zc:forScope /Zc:inline /permissive- /Fo"X64\DEBUG\\" /Fd"X64\DEBUG\VC143.PDB" /external:W3 /Gd /TP /FC F:\PROJECTFILES\PAPER\CODE\SIMPLE_ISP_PIPELINE\C++\MASTER BRANCH\COLOR_CORRECTION_PROCESS\CORRECTION_PROCESS\CCP.CPP
^F:\PROJECTFILES\PAPER\CODE\SIMPLE_ISP_PIPELINE\C++\MASTER BRANCH\COLOR_CORRECTION_PROCESS\CORRECTION_PROCESS\CCP_SINGLETEST.CPP
/c /ZI /JMC /nologo /W3 /WX- /diagnostics:column /sdl /Od /D _DEBUG /D _CONSOLE /D _UNICODE /D UNICODE /Gm- /EHsc /RTC1 /MDd /GS /fp:precise /Zc:wchar_t /Zc:forScope /Zc:inline /permissive- /Fo"X64\DEBUG\\" /Fd"X64\DEBUG\VC143.PDB" /external:W3 /Gd /TP /FC F:\PROJECTFILES\PAPER\CODE\SIMPLE_ISP_PIPELINE\C++\MASTER BRANCH\COLOR_CORRECTION_PROCESS\CORRECTION_PROCESS\CCP_SINGLETEST.CPP
