^F:\PROJECTFILES\PAPER\CODE\SIMPLE_ISP_PIPELINE\C++\MASTER BRANCH\DIGITIAL_GAIN_COMPENSATION\DIGITAL_GAIN_CORRECTION_PROCESS\X64\DEBUG\DGC.OBJ|F:\PROJECTFILES\PAPER\CODE\SIMPLE_ISP_PIPELINE\C++\MASTER BRANCH\DIGITIAL_GAIN_COMPENSATION\DIGITAL_GAIN_CORRECTION_PROCESS\X64\DEBUG\DGC_SINGLETEST.OBJ
F:\PROJECTFILES\PAPER\CODE\SIMPLE_ISP_PIPELINE\C++\MASTER BRANCH\DIGITIAL_GAIN_COMPENSATION\DIGITAL_GAIN_CORRECTION_PROCESS\X64\DEBUG\DIGITAL_GAIN_CORRECTION_PROCESS.EXE
F:\PROJECTFILES\PAPER\CODE\SIMPLE_ISP_PIPELINE\C++\MASTER BRANCH\DIGITIAL_GAIN_COMPENSATION\DIGITAL_GAIN_CORRECTION_PROCESS\X64\DEBUG\DIGITAL_GAIN_CORRECTION_PROCESS.ILK
F:\PROJECTFILES\PAPER\CODE\SIMPLE_ISP_PIPELINE\C++\MASTER BRANCH\DIGITIAL_GAIN_COMPENSATION\DIGITAL_GAIN_CORRECTION_PROCESS\X64\DEBUG\DIGITAL_GAIN_CORRECTION_PROCESS.PDB
